[api-updater (non-obsolete-error-filter)] 5/2/2021 8:13:15 AM : Starting C:/Program Files/Unity/Hub/Editor/2020.3.3f1/Editor/Data/Tools/ScriptUpdater/APIUpdater.NonObsoleteApiUpdaterDetector.exe
[api-updater (non-obsolete-error-filter)] 
----------------------------------
jit/startup time      : 152.2551ms
moved types parse time: 42ms
candidates parse time : 1ms
C# parse time         : 197ms
candidates check time : 34ms
console write time    : 0ms

[api-updater (non-obsolete-error-filter)] 5/6/2021 7:03:42 PM : Starting C:/Program Files/Unity/Hub/Editor/2020.3.3f1/Editor/Data/Tools/ScriptUpdater/APIUpdater.NonObsoleteApiUpdaterDetector.exe
[api-updater (non-obsolete-error-filter)] 
----------------------------------
jit/startup time      : 130.8068ms
moved types parse time: 38ms
candidates parse time : 0ms
C# parse time         : 211ms
candidates check time : 54ms
console write time    : 0ms

[api-updater (non-obsolete-error-filter)] 5/6/2021 7:03:49 PM : Starting C:/Program Files/Unity/Hub/Editor/2020.3.3f1/Editor/Data/Tools/ScriptUpdater/APIUpdater.NonObsoleteApiUpdaterDetector.exe
[api-updater (non-obsolete-error-filter)] 
----------------------------------
jit/startup time      : 43.4108ms
moved types parse time: 37ms
candidates parse time : 0ms
C# parse time         : 158ms
candidates check time : 46ms
console write time    : 0ms

[api-updater (non-obsolete-error-filter)] 5/6/2021 7:03:59 PM : Starting C:/Program Files/Unity/Hub/Editor/2020.3.3f1/Editor/Data/Tools/ScriptUpdater/APIUpdater.NonObsoleteApiUpdaterDetector.exe
[api-updater (non-obsolete-error-filter)] 
----------------------------------
jit/startup time      : 43.8825ms
moved types parse time: 37ms
candidates parse time : 0ms
C# parse time         : 151ms
candidates check time : 38ms
console write time    : 0ms

[api-updater (non-obsolete-error-filter)] 5/6/2021 7:04:21 PM : Starting C:/Program Files/Unity/Hub/Editor/2020.3.3f1/Editor/Data/Tools/ScriptUpdater/APIUpdater.NonObsoleteApiUpdaterDetector.exe
[api-updater (non-obsolete-error-filter)] 
----------------------------------
jit/startup time      : 44.2589ms
moved types parse time: 38ms
candidates parse time : 0ms
C# parse time         : 156ms
candidates check time : 38ms
console write time    : 0ms

[api-updater (non-obsolete-error-filter)] 5/6/2021 7:04:23 PM : Starting C:/Program Files/Unity/Hub/Editor/2020.3.3f1/Editor/Data/Tools/ScriptUpdater/APIUpdater.NonObsoleteApiUpdaterDetector.exe
[api-updater (non-obsolete-error-filter)] 
----------------------------------
jit/startup time      : 43.883ms
moved types parse time: 37ms
candidates parse time : 0ms
C# parse time         : 160ms
candidates check time : 40ms
console write time    : 0ms

[api-updater (non-obsolete-error-filter)] 5/7/2021 6:44:11 AM : Starting C:/Program Files/Unity/Hub/Editor/2020.3.3f1/Editor/Data/Tools/ScriptUpdater/APIUpdater.NonObsoleteApiUpdaterDetector.exe
[api-updater (non-obsolete-error-filter)] 
----------------------------------
jit/startup time      : 43.905ms
moved types parse time: 38ms
candidates parse time : 0ms
C# parse time         : 156ms
candidates check time : 40ms
console write time    : 0ms

[api-updater (non-obsolete-error-filter)] 5/7/2021 5:02:55 PM : Starting C:/Program Files/Unity/Hub/Editor/2020.3.3f1/Editor/Data/Tools/ScriptUpdater/APIUpdater.NonObsoleteApiUpdaterDetector.exe
[api-updater (non-obsolete-error-filter)] 
----------------------------------
jit/startup time      : 121.4867ms
moved types parse time: 38ms
candidates parse time : 0ms
C# parse time         : 177ms
candidates check time : 38ms
console write time    : 0ms

[api-updater (non-obsolete-error-filter)] 5/7/2021 5:03:19 PM : Starting C:/Program Files/Unity/Hub/Editor/2020.3.3f1/Editor/Data/Tools/ScriptUpdater/APIUpdater.NonObsoleteApiUpdaterDetector.exe
[api-updater (non-obsolete-error-filter)] 
----------------------------------
jit/startup time      : 44.8817ms
moved types parse time: 38ms
candidates parse time : 0ms
C# parse time         : 163ms
candidates check time : 37ms
console write time    : 0ms

[api-updater (non-obsolete-error-filter)] 5/7/2021 5:03:31 PM : Starting C:/Program Files/Unity/Hub/Editor/2020.3.3f1/Editor/Data/Tools/ScriptUpdater/APIUpdater.NonObsoleteApiUpdaterDetector.exe
[api-updater (non-obsolete-error-filter)] 
----------------------------------
jit/startup time      : 46.8655ms
moved types parse time: 38ms
candidates parse time : 0ms
C# parse time         : 173ms
candidates check time : 38ms
console write time    : 0ms

[api-updater (non-obsolete-error-filter)] 5/7/2021 5:03:39 PM : Starting C:/Program Files/Unity/Hub/Editor/2020.3.3f1/Editor/Data/Tools/ScriptUpdater/APIUpdater.NonObsoleteApiUpdaterDetector.exe
[api-updater (non-obsolete-error-filter)] 
----------------------------------
jit/startup time      : 43.8828ms
moved types parse time: 38ms
candidates parse time : 1ms
C# parse time         : 162ms
candidates check time : 37ms
console write time    : 0ms

[api-updater (non-obsolete-error-filter)] 5/7/2021 5:03:52 PM : Starting C:/Program Files/Unity/Hub/Editor/2020.3.3f1/Editor/Data/Tools/ScriptUpdater/APIUpdater.NonObsoleteApiUpdaterDetector.exe
[api-updater (non-obsolete-error-filter)] 
----------------------------------
jit/startup time      : 44.7985ms
moved types parse time: 39ms
candidates parse time : 0ms
C# parse time         : 165ms
candidates check time : 56ms
console write time    : 0ms

[api-updater (non-obsolete-error-filter)] 5/7/2021 5:04:32 PM : Starting C:/Program Files/Unity/Hub/Editor/2020.3.3f1/Editor/Data/Tools/ScriptUpdater/APIUpdater.NonObsoleteApiUpdaterDetector.exe
[api-updater (non-obsolete-error-filter)] 
----------------------------------
jit/startup time      : 44.9062ms
moved types parse time: 38ms
candidates parse time : 0ms
C# parse time         : 169ms
candidates check time : 37ms
console write time    : 0ms

[api-updater (non-obsolete-error-filter)] 5/7/2021 5:04:55 PM : Starting C:/Program Files/Unity/Hub/Editor/2020.3.3f1/Editor/Data/Tools/ScriptUpdater/APIUpdater.NonObsoleteApiUpdaterDetector.exe
[api-updater (non-obsolete-error-filter)] 
----------------------------------
jit/startup time      : 45.8774ms
moved types parse time: 38ms
candidates parse time : 0ms
C# parse time         : 184ms
candidates check time : 53ms
console write time    : 0ms

[api-updater (non-obsolete-error-filter)] 5/7/2021 5:05:21 PM : Starting C:/Program Files/Unity/Hub/Editor/2020.3.3f1/Editor/Data/Tools/ScriptUpdater/APIUpdater.NonObsoleteApiUpdaterDetector.exe
[api-updater (non-obsolete-error-filter)] 
----------------------------------
jit/startup time      : 44.8806ms
moved types parse time: 38ms
candidates parse time : 0ms
C# parse time         : 166ms
candidates check time : 45ms
console write time    : 0ms

[api-updater (non-obsolete-error-filter)] 5/7/2021 5:05:27 PM : Starting C:/Program Files/Unity/Hub/Editor/2020.3.3f1/Editor/Data/Tools/ScriptUpdater/APIUpdater.NonObsoleteApiUpdaterDetector.exe
[api-updater (non-obsolete-error-filter)] 
----------------------------------
jit/startup time      : 43.8827ms
moved types parse time: 38ms
candidates parse time : 0ms
C# parse time         : 169ms
candidates check time : 42ms
console write time    : 0ms

[api-updater (non-obsolete-error-filter)] 5/7/2021 5:06:24 PM : Starting C:/Program Files/Unity/Hub/Editor/2020.3.3f1/Editor/Data/Tools/ScriptUpdater/APIUpdater.NonObsoleteApiUpdaterDetector.exe
[api-updater (non-obsolete-error-filter)] 
----------------------------------
jit/startup time      : 45.8775ms
moved types parse time: 38ms
candidates parse time : 0ms
C# parse time         : 165ms
candidates check time : 45ms
console write time    : 0ms

[api-updater (non-obsolete-error-filter)] 5/7/2021 5:06:33 PM : Starting C:/Program Files/Unity/Hub/Editor/2020.3.3f1/Editor/Data/Tools/ScriptUpdater/APIUpdater.NonObsoleteApiUpdaterDetector.exe
[api-updater (non-obsolete-error-filter)] 
----------------------------------
jit/startup time      : 43.9055ms
moved types parse time: 38ms
candidates parse time : 0ms
C# parse time         : 163ms
candidates check time : 48ms
console write time    : 0ms

[api-updater (non-obsolete-error-filter)] 5/7/2021 5:06:41 PM : Starting C:/Program Files/Unity/Hub/Editor/2020.3.3f1/Editor/Data/Tools/ScriptUpdater/APIUpdater.NonObsoleteApiUpdaterDetector.exe
[api-updater (non-obsolete-error-filter)] 
----------------------------------
jit/startup time      : 43.8847ms
moved types parse time: 38ms
candidates parse time : 0ms
C# parse time         : 163ms
candidates check time : 42ms
console write time    : 0ms

[api-updater (non-obsolete-error-filter)] 5/7/2021 5:07:19 PM : Starting C:/Program Files/Unity/Hub/Editor/2020.3.3f1/Editor/Data/Tools/ScriptUpdater/APIUpdater.NonObsoleteApiUpdaterDetector.exe
[api-updater (non-obsolete-error-filter)] 
----------------------------------
jit/startup time      : 42.8884ms
moved types parse time: 38ms
candidates parse time : 0ms
C# parse time         : 165ms
candidates check time : 43ms
console write time    : 0ms

[api-updater (non-obsolete-error-filter)] 5/7/2021 5:07:38 PM : Starting C:/Program Files/Unity/Hub/Editor/2020.3.3f1/Editor/Data/Tools/ScriptUpdater/APIUpdater.NonObsoleteApiUpdaterDetector.exe
[api-updater (non-obsolete-error-filter)] 
----------------------------------
jit/startup time      : 42.913ms
moved types parse time: 40ms
candidates parse time : 0ms
C# parse time         : 172ms
candidates check time : 46ms
console write time    : 0ms

[api-updater (non-obsolete-error-filter)] 5/7/2021 5:07:50 PM : Starting C:/Program Files/Unity/Hub/Editor/2020.3.3f1/Editor/Data/Tools/ScriptUpdater/APIUpdater.NonObsoleteApiUpdaterDetector.exe
[api-updater (non-obsolete-error-filter)] 
----------------------------------
jit/startup time      : 44.909ms
moved types parse time: 38ms
candidates parse time : 0ms
C# parse time         : 164ms
candidates check time : 52ms
console write time    : 0ms

[api-updater (non-obsolete-error-filter)] 5/7/2021 5:07:55 PM : Starting C:/Program Files/Unity/Hub/Editor/2020.3.3f1/Editor/Data/Tools/ScriptUpdater/APIUpdater.NonObsoleteApiUpdaterDetector.exe
[api-updater (non-obsolete-error-filter)] 
----------------------------------
jit/startup time      : 43.8843ms
moved types parse time: 39ms
candidates parse time : 0ms
C# parse time         : 169ms
candidates check time : 45ms
console write time    : 0ms

[api-updater (non-obsolete-error-filter)] 5/7/2021 5:08:09 PM : Starting C:/Program Files/Unity/Hub/Editor/2020.3.3f1/Editor/Data/Tools/ScriptUpdater/APIUpdater.NonObsoleteApiUpdaterDetector.exe
[api-updater (non-obsolete-error-filter)] 
----------------------------------
jit/startup time      : 45.9099ms
moved types parse time: 38ms
candidates parse time : 0ms
C# parse time         : 163ms
candidates check time : 45ms
console write time    : 0ms

[api-updater (non-obsolete-error-filter)] 5/7/2021 5:08:16 PM : Starting C:/Program Files/Unity/Hub/Editor/2020.3.3f1/Editor/Data/Tools/ScriptUpdater/APIUpdater.NonObsoleteApiUpdaterDetector.exe
[api-updater (non-obsolete-error-filter)] 
----------------------------------
jit/startup time      : 43.9097ms
moved types parse time: 38ms
candidates parse time : 1ms
C# parse time         : 166ms
candidates check time : 42ms
console write time    : 0ms

[api-updater (non-obsolete-error-filter)] 5/7/2021 5:08:18 PM : Starting C:/Program Files/Unity/Hub/Editor/2020.3.3f1/Editor/Data/Tools/ScriptUpdater/APIUpdater.NonObsoleteApiUpdaterDetector.exe
[api-updater (non-obsolete-error-filter)] 
----------------------------------
jit/startup time      : 43.2047ms
moved types parse time: 38ms
candidates parse time : 0ms
C# parse time         : 164ms
candidates check time : 42ms
console write time    : 0ms

[api-updater (non-obsolete-error-filter)] 5/8/2021 5:14:01 AM : Starting C:/Program Files/Unity/Hub/Editor/2020.3.3f1/Editor/Data/Tools/ScriptUpdater/APIUpdater.NonObsoleteApiUpdaterDetector.exe
[api-updater (non-obsolete-error-filter)] 
----------------------------------
jit/startup time      : 45.462ms
moved types parse time: 39ms
candidates parse time : 0ms
C# parse time         : 167ms
candidates check time : 46ms
console write time    : 0ms

[api-updater (non-obsolete-error-filter)] 5/8/2021 5:14:08 AM : Starting C:/Program Files/Unity/Hub/Editor/2020.3.3f1/Editor/Data/Tools/ScriptUpdater/APIUpdater.NonObsoleteApiUpdaterDetector.exe
[api-updater (non-obsolete-error-filter)] 
----------------------------------
jit/startup time      : 44.6232ms
moved types parse time: 39ms
candidates parse time : 0ms
C# parse time         : 175ms
candidates check time : 50ms
console write time    : 0ms

[api-updater (non-obsolete-error-filter)] 5/8/2021 5:14:43 AM : Starting C:/Program Files/Unity/Hub/Editor/2020.3.3f1/Editor/Data/Tools/ScriptUpdater/APIUpdater.NonObsoleteApiUpdaterDetector.exe
[api-updater (non-obsolete-error-filter)] 
----------------------------------
jit/startup time      : 44.9038ms
moved types parse time: 41ms
candidates parse time : 0ms
C# parse time         : 169ms
candidates check time : 47ms
console write time    : 0ms

[api-updater (non-obsolete-error-filter)] 5/8/2021 5:15:04 AM : Starting C:/Program Files/Unity/Hub/Editor/2020.3.3f1/Editor/Data/Tools/ScriptUpdater/APIUpdater.NonObsoleteApiUpdaterDetector.exe
[api-updater (non-obsolete-error-filter)] 
----------------------------------
jit/startup time      : 45.9035ms
moved types parse time: 41ms
candidates parse time : 0ms
C# parse time         : 171ms
candidates check time : 47ms
console write time    : 0ms

[api-updater (non-obsolete-error-filter)] 5/8/2021 5:15:33 AM : Starting C:/Program Files/Unity/Hub/Editor/2020.3.3f1/Editor/Data/Tools/ScriptUpdater/APIUpdater.NonObsoleteApiUpdaterDetector.exe
[api-updater (non-obsolete-error-filter)] 
----------------------------------
jit/startup time      : 45.8775ms
moved types parse time: 39ms
candidates parse time : 1ms
C# parse time         : 164ms
candidates check time : 40ms
console write time    : 0ms

[api-updater (non-obsolete-error-filter)] 5/8/2021 5:33:23 AM : Starting C:/Program Files/Unity/Hub/Editor/2020.3.3f1/Editor/Data/Tools/ScriptUpdater/APIUpdater.NonObsoleteApiUpdaterDetector.exe
[api-updater (non-obsolete-error-filter)] 
----------------------------------
jit/startup time      : 45.4447ms
moved types parse time: 38ms
candidates parse time : 0ms
C# parse time         : 173ms
candidates check time : 40ms
console write time    : 0ms

[api-updater (non-obsolete-error-filter)] 5/8/2021 5:40:10 AM : Starting C:/Program Files/Unity/Hub/Editor/2020.3.3f1/Editor/Data/Tools/ScriptUpdater/APIUpdater.NonObsoleteApiUpdaterDetector.exe
[api-updater (non-obsolete-error-filter)] 
----------------------------------
jit/startup time      : 45.877ms
moved types parse time: 42ms
candidates parse time : 0ms
C# parse time         : 182ms
candidates check time : 44ms
console write time    : 0ms

[api-updater (non-obsolete-error-filter)] 5/8/2021 10:12:11 AM : Starting C:/Program Files/Unity/Hub/Editor/2020.3.3f1/Editor/Data/Tools/ScriptUpdater/APIUpdater.NonObsoleteApiUpdaterDetector.exe
[api-updater (non-obsolete-error-filter)] 
----------------------------------
jit/startup time      : 130.4358ms
moved types parse time: 37ms
candidates parse time : 0ms
C# parse time         : 213ms
candidates check time : 45ms
console write time    : 0ms

[api-updater (non-obsolete-error-filter)] 5/9/2021 6:37:05 PM : Starting C:/Program Files/Unity/Hub/Editor/2020.3.3f1/Editor/Data/Tools/ScriptUpdater/APIUpdater.NonObsoleteApiUpdaterDetector.exe
[api-updater (non-obsolete-error-filter)] 
----------------------------------
jit/startup time      : 131.736ms
moved types parse time: 39ms
candidates parse time : 0ms
C# parse time         : 230ms
candidates check time : 56ms
console write time    : 0ms

[api-updater (non-obsolete-error-filter)] 5/9/2021 6:37:09 PM : Starting C:/Program Files/Unity/Hub/Editor/2020.3.3f1/Editor/Data/Tools/ScriptUpdater/APIUpdater.NonObsoleteApiUpdaterDetector.exe
[api-updater (non-obsolete-error-filter)] 
----------------------------------
jit/startup time      : 42.3529ms
moved types parse time: 38ms
candidates parse time : 0ms
C# parse time         : 175ms
candidates check time : 49ms
console write time    : 0ms

[api-updater (non-obsolete-error-filter)] 5/12/2021 7:21:31 PM : Starting C:/Program Files/Unity/Hub/Editor/2020.3.3f1/Editor/Data/Tools/ScriptUpdater/APIUpdater.NonObsoleteApiUpdaterDetector.exe
[api-updater (non-obsolete-error-filter)] 
----------------------------------
jit/startup time      : 146.7825ms
moved types parse time: 42ms
candidates parse time : 0ms
C# parse time         : 271ms
candidates check time : 58ms
console write time    : 1ms

[api-updater (non-obsolete-error-filter)] 5/13/2021 5:43:40 AM : Starting C:/Program Files/Unity/Hub/Editor/2020.3.3f1/Editor/Data/Tools/ScriptUpdater/APIUpdater.NonObsoleteApiUpdaterDetector.exe
[api-updater (non-obsolete-error-filter)] 
----------------------------------
jit/startup time      : 129.0455ms
moved types parse time: 37ms
candidates parse time : 0ms
C# parse time         : 213ms
candidates check time : 54ms
console write time    : 0ms

[api-updater (non-obsolete-error-filter)] 5/13/2021 10:44:17 AM : Starting C:/Program Files/Unity/Hub/Editor/2020.3.3f1/Editor/Data/Tools/ScriptUpdater/APIUpdater.NonObsoleteApiUpdaterDetector.exe
[api-updater (non-obsolete-error-filter)] 
----------------------------------
jit/startup time      : 44.8932ms
moved types parse time: 37ms
candidates parse time : 0ms
C# parse time         : 167ms
candidates check time : 56ms
console write time    : 0ms

[api-updater (non-obsolete-error-filter)] 5/13/2021 10:44:41 AM : Starting C:/Program Files/Unity/Hub/Editor/2020.3.3f1/Editor/Data/Tools/ScriptUpdater/APIUpdater.NonObsoleteApiUpdaterDetector.exe
[api-updater (non-obsolete-error-filter)] 
----------------------------------
jit/startup time      : 42.9266ms
moved types parse time: 39ms
candidates parse time : 0ms
C# parse time         : 183ms
candidates check time : 55ms
console write time    : 0ms

[api-updater (non-obsolete-error-filter)] 5/20/2021 1:37:46 PM : Starting C:/Program Files/Unity/Hub/Editor/2020.3.3f1/Editor/Data/Tools/ScriptUpdater/APIUpdater.NonObsoleteApiUpdaterDetector.exe
[api-updater (non-obsolete-error-filter)] 
----------------------------------
jit/startup time      : 141.5936ms
moved types parse time: 39ms
candidates parse time : 1ms
C# parse time         : 195ms
candidates check time : 34ms
console write time    : 0ms

[api-updater (non-obsolete-error-filter)] 5/20/2021 1:42:25 PM : Starting C:/Program Files/Unity/Hub/Editor/2020.3.3f1/Editor/Data/Tools/ScriptUpdater/APIUpdater.NonObsoleteApiUpdaterDetector.exe
[api-updater (non-obsolete-error-filter)] 
----------------------------------
jit/startup time      : 44.9073ms
moved types parse time: 38ms
candidates parse time : 0ms
C# parse time         : 141ms
candidates check time : 31ms
console write time    : 0ms

[api-updater (non-obsolete-error-filter)] 5/20/2021 2:41:58 PM : Starting C:/Program Files/Unity/Hub/Editor/2020.3.3f1/Editor/Data/Tools/ScriptUpdater/APIUpdater.NonObsoleteApiUpdaterDetector.exe
[api-updater (non-obsolete-error-filter)] 
----------------------------------
jit/startup time      : 57.8969ms
moved types parse time: 37ms
candidates parse time : 0ms
C# parse time         : 143ms
candidates check time : 31ms
console write time    : 0ms

[api-updater (non-obsolete-error-filter)] 5/20/2021 2:46:36 PM : Starting C:/Program Files/Unity/Hub/Editor/2020.3.3f1/Editor/Data/Tools/ScriptUpdater/APIUpdater.NonObsoleteApiUpdaterDetector.exe
[api-updater (non-obsolete-error-filter)] 
----------------------------------
jit/startup time      : 44.9083ms
moved types parse time: 38ms
candidates parse time : 0ms
C# parse time         : 141ms
candidates check time : 31ms
console write time    : 0ms

[api-updater (non-obsolete-error-filter)] 5/20/2021 2:46:45 PM : Starting C:/Program Files/Unity/Hub/Editor/2020.3.3f1/Editor/Data/Tools/ScriptUpdater/APIUpdater.NonObsoleteApiUpdaterDetector.exe
[api-updater (non-obsolete-error-filter)] 
----------------------------------
jit/startup time      : 46.3815ms
moved types parse time: 39ms
candidates parse time : 0ms
C# parse time         : 146ms
candidates check time : 31ms
console write time    : 0ms

[api-updater (non-obsolete-error-filter)] 5/20/2021 2:50:22 PM : Starting C:/Program Files/Unity/Hub/Editor/2020.3.3f1/Editor/Data/Tools/ScriptUpdater/APIUpdater.NonObsoleteApiUpdaterDetector.exe
[api-updater (non-obsolete-error-filter)] 
----------------------------------
jit/startup time      : 42.8854ms
moved types parse time: 38ms
candidates parse time : 0ms
C# parse time         : 142ms
candidates check time : 32ms
console write time    : 0ms

